@startuml
!define table(x) class x << (T,#FFAAAA) >>
!define primary_key(x) <u>x</u>
!define foreign_key(x) x<u>FK</u>
hide methods
hide stereotypes

table(tbl_person) {
  + primary_key(person_id)
  - vorname
  - nachname
  - test
}

table(tbl_user) {
  + primary_key(user_id)
  - uid
  - foreign_key(person_id)
  - emailAddress
  - emailStatus
  - emailChangeCandidate
  - password
  - isSuperAdmin
  - passwordResetToken
  - passwordResetTokenExpiresAt
  - emailProofToken
  - emailProofTokenExpiresAt
  - lastSeenAt
  - insertamum
  - insertvon
  - updateamum
  - updatevon
}

tbl_user::person_id --> tbl_person::person_id : 1..n

@enduml




